module am_kh_backend

go 1.17

require (
	cloud.google.com/go/compute v1.3.0 // indirect
	github.com/go-sql-driver/mysql v1.6.0 // indirect
	github.com/golang/groupcache v0.0.0-20210331224755-41bb18bfe9da // indirect
	github.com/golang/protobuf v1.5.2 // indirect
	github.com/googleapis/gax-go/v2 v2.1.1 // indirect
	go.opencensus.io v0.23.0 // indirect
	golang.org/x/net v0.0.0-20220127200216-cd36cc0744dd // indirect
	golang.org/x/oauth2 v0.0.0-20211104180415-d3ed0bb246c8 // indirect
	golang.org/x/sys v0.0.0-20220209214540-3681064d5158 // indirect
	golang.org/x/text v0.3.7 // indirect
	google.golang.org/api v0.69.0 // indirect
	google.golang.org/appengine v1.6.7 // indirect
	google.golang.org/genproto v0.0.0-20220217155828-d576998c0009 // indirect
	google.golang.org/grpc v1.44.0 // indirect
	google.golang.org/protobuf v1.27.1 // indirect
)
